advent01,0.00,0:00.02,10488
advent02,0.00,0:00.02,11112
advent03,0.00,0:00.02,10408
advent04,0.00,0:00.01,9040
advent05,0.01,0:00.01,9324
advent06,0.01,0:00.02,10124
advent07,0.00,0:00.01,9192
advent08,0.02,0:00.09,12204
advent09,0.01,0:00.06,23660
advent10,0.00,0:00.01,6800
advent11,0.07,0:00.36,66664
advent12,0.06,0:01.09,13264
advent13,0.01,0:00.01,12300
advent14,0.01,0:00.85,15068
advent15,20.65,2:17.27,18101260
advent16,15.74,2:24.64,45628
advent17,3.94,0:20.67,22000
advent18,0.02,0:00.06,14060
advent19,87.22,18:54.12,14295324
advent20,2.81,0:15.04,13940
advent21,0.02,0:00.40,12680
advent22,0.02,0:00.23,15908
advent23,1.87,6:10.18,13628
advent24,0.24,0:02.74,74820
advent25,0.00,0:00.01,5896
